week10/ex2/simulation/modelsim/dump.vcd
$date
	Fri Nov 06 00:14:04 2020
$end
$version
	ModelSim Version 10.5b
$end
$timescale
	1ps
$end

$scope module full_adder_testbench $end
$var reg 1 ! a $end
$var reg 1 " b $end
$var reg 1 # carry_in $end
$var wire 1 $ carry_out $end
$var wire 1 % sum $end

$scope module fa $end
$var wire 1 & a $end
$var wire 1 ' b $end
$var wire 1 ( carryin $end
$var wire 1 $ carryout $end
$var wire 1 % out $end
$upscope $end
$upscope $end
$enddefinitions $end
#0
$dumpvars
0!
1"
0#
0$
1%
0(
1'
0&
$end
#5
1#
1(
0%
1$
#10
1!
0"
1&
0'
#15
0#
0(
1%
0$
#20
0!
0&
0%
#25
1#
1(
1%
#30
1!
1"
1&
1'
1$
#35
0#
0(
0%
